ProjectFiles/tests/NEGATIVE_test_incorrect_N/dump.vcd
$date
	Mon Nov 10 00:52:54 2025
$end
$version
	Bluespec VCD dumper 2.1
$end
$timescale
	1 us
$end
$scope module main $end
$scope module top $end
$var reg 1 ! CLK $end
$var reg 1 ! CLK $end
$var reg 1 " RST_N $end
$var reg 32 # TASK_fopen___d18 $end
$var reg 1025 $ mask__h2909 $end
$var reg 32 % outFile___d27 $end
$var reg 64 & v__h1418 $end
$var reg 64 ' v__h1555 $end
$var reg 64 ( v__h1939 $end
$var reg 64 ) v__h2342 $end
$var reg 64 * v__h2447 $end
$var reg 64 + v__h2527 $end
$var reg 64 , v__h2607 $end
$var reg 64 - v__h2687 $end
$var reg 64 . v__h2767 $end
$var reg 64 / v__h2870 $end
$var reg 64 0 v__h3068 $end
$var reg 64 1 v__h3160 $end
$var reg 1025 2 x__h2919 $end
$var reg 1025 3 x__h2941 $end
$var reg 11 4 y__h2992 $end
$var reg 11 B dumpAddr $end
$var reg 32 C outFile $end
$var reg 11 D outMaxAddr $end
$var reg 2 E outState $end
$var reg 1025 F outWrittenMask $end
$var reg 1 G testDone $end
$var reg 1 H testStart $end
$scope module dut $end
$var reg 1 ! CLK $end
$var reg 1 I NOT_fpAdder1_add_21_BIT_0_23___d126 $end
$var reg 1 J NOT_readRespFIFO_A1_first__06_BIT_31_10___d111 $end
$var reg 1 K NOT_readRespFIFO_B1_first__08_BIT_31_12___d113 $end
$var reg 1 L NOT_readRespFIFO_Input1_first__9_EQ_0x0_0___d69 $end
$var reg 1 M NOT_readRespFIFO_Input1_first__9_EQ_0xFFFFFFFF_1___d72 $end
$var reg 1 N NOT_readRespFIFO_Input1_first__9_ULE_mValue_2_3___d64 $end
$var reg 1 O RST_N $end
$var reg 10 P _read__h5373 $end
$var reg 10 Q _read__h5404 $end
$var reg 32 R a__h16903 $end
$var reg 10 S addr__h10331 $end
$var reg 10 T bIndex__h15925 $end
$var reg 32 U b__h14881 $end
$var reg 32 V b__h16904 $end
$var reg 42 W baseAddrVCurr_32_PLUS_0_CONCAT_stateIndex_8_MI_ETC___d137 $end
$var reg 5 X curr_state__h19490 $end
$var reg 10 Y curr_state_ext__h17621 $end
$var reg 32 Z finalProb__h16918 $end
$var reg 32 [ finalProb__h17309 $end
$var reg 1 \ fpAdder1_add_21_BIT_0___d123 $end
$var reg 33 ] fpAdder1_add___d121 $end
$var reg 10 ^ inputValue_ext__h15923 $end
$var reg 10 _ mValue_ext__h15924 $end
$var reg 32 ` max_state__h19491 $end
$var reg 10 a max_state_ext__h19494 $end
$var reg 10 b prevStateIndex_ext__h13904 $end
$var reg 1 c readRespFIFO_A1_first__06_BIT_31___d110 $end
$var reg 32 d readRespFIFO_A1_first____d106 $end
$var reg 1 e readRespFIFO_B1_first__08_BIT_31___d112 $end
$var reg 32 f readRespFIFO_B1_first____d108 $end
$var reg 1 g readRespFIFO_Input1_first__9_EQ_0x0___d60 $end
$var reg 1 h readRespFIFO_Input1_first__9_EQ_0xFFFFFFFF___d61 $end
$var reg 1 i readRespFIFO_Input1_first__9_ULE_mValue_2___d63 $end
$var reg 32 j readRespFIFO_Input1_first____d59 $end
$var reg 1 k rg_done__h20996 $end
$var reg 1 l rg_start__h5591 $end
$var reg 5 m stateIndex_1__h10330 $end
$var reg 64 n v__h10041 $end
$var reg 64 o v__h10144 $end
$var reg 64 p v__h10379 $end
$var reg 64 q v__h10442 $end
$var reg 64 r v__h10654 $end
$var reg 64 s v__h10752 $end
$var reg 64 t v__h10819 $end
$var reg 64 u v__h11016 $end
$var reg 64 v v__h11192 $end
$var reg 64 w v__h11287 $end
$var reg 64 x v__h11353 $end
$var reg 64 y v__h11442 $end
$var reg 64 z v__h11513 $end
$var reg 64 { v__h11660 $end
$var reg 64 | v__h11857 $end
$var reg 64 } v__h11928 $end
$var reg 64 ~ v__h11991 $end
$var reg 64 "! v__h12206 $end
$var reg 64 "" v__h12297 $end
$var reg 64 "# v__h12339 $end
$var reg 64 "$ v__h12416 $end
$var reg 64 "% v__h12509 $end
$var reg 64 "& v__h12575 $end
$var reg 64 "' v__h12772 $end
$var reg 64 "( v__h12867 $end
$var reg 64 ") v__h13064 $end
$var reg 64 "* v__h13209 $end
$var reg 64 "+ v__h13272 $end
$var reg 64 ", v__h13495 $end
$var reg 64 "- v__h13558 $end
$var reg 64 ". v__h13655 $end
$var reg 64 "/ v__h13719 $end
$var reg 64 "0 v__h13970 $end
$var reg 64 "1 v__h14033 $end
$var reg 64 "2 v__h14280 $end
$var reg 64 "3 v__h14591 $end
$var reg 64 "4 v__h14689 $end
$var reg 64 "5 v__h14956 $end
$var reg 64 "6 v__h15054 $end
$var reg 64 "7 v__h15252 $end
$var reg 64 "8 v__h15427 $end
$var reg 64 "9 v__h15687 $end
$var reg 64 ": v__h15884 $end
$var reg 64 "; v__h15993 $end
$var reg 64 "< v__h16056 $end
$var reg 64 "= v__h16303 $end
$var reg 64 "> v__h16614 $end
$var reg 64 "? v__h16712 $end
$var reg 64 "@ v__h16979 $end
$var reg 64 "A v__h17021 $end
$var reg 64 "B v__h17124 $end
$var reg 64 "C v__h17349 $end
$var reg 64 "D v__h17412 $end
$var reg 64 "E v__h17669 $end
$var reg 64 "F v__h17732 $end
$var reg 64 "G v__h17993 $end
$var reg 64 "H v__h18040 $end
$var reg 64 "I v__h18197 $end
$var reg 64 "J v__h18375 $end
$var reg 64 "K v__h18419 $end
$var reg 64 "L v__h18485 $end
$var reg 64 "M v__h18623 $end
$var reg 64 "N v__h18732 $end
$var reg 64 "O v__h18861 $end
$var reg 64 "P v__h19058 $end
$var reg 64 "Q v__h19188 $end
$var reg 64 "R v__h19427 $end
$var reg 64 "S v__h19538 $end
$var reg 64 "T v__h19753 $end
$var reg 64 "U v__h19884 $end
$var reg 64 "V v__h20110 $end
$var reg 64 "W v__h20255 $end
$var reg 64 "X v__h20523 $end
$var reg 64 "Y v__h20766 $end
$var reg 64 "Z v__h21012 $end
$var reg 64 "[ v__h5619 $end
$var reg 64 "\ v__h5862 $end
$var reg 64 "] v__h6073 $end
$var reg 64 "^ v__h6328 $end
$var reg 64 "_ v__h6391 $end
$var reg 64 "` v__h6645 $end
$var reg 64 "a v__h6750 $end
$var reg 64 "b v__h7021 $end
$var reg 64 "c v__h7087 $end
$var reg 64 "d v__h7314 $end
$var reg 64 "e v__h7377 $end
$var reg 64 "f v__h7642 $end
$var reg 64 "g v__h7684 $end
$var reg 64 "h v__h7804 $end
$var reg 64 "i v__h7870 $end
$var reg 64 "j v__h8067 $end
$var reg 64 "k v__h8233 $end
$var reg 64 "l v__h8430 $end
$var reg 64 "m v__h8570 $end
$var reg 64 "n v__h8619 $end
$var reg 64 "o v__h8682 $end
$var reg 64 "p v__h8934 $end
$var reg 64 "q v__h9039 $end
$var reg 64 "r v__h9619 $end
$var reg 64 "s v__h9717 $end
$var reg 64 "t v__h9999 $end
$var reg 5 "u x__h15634 $end
$var reg 5 "v x__h15653 $end
$var reg 10 "w x__h15959 $end
$var reg 32 "x x__h15970 $end
$var reg 32 "y x__h15975 $end
$var reg 5 "z x__h17650 $end
$var reg 5 "{ x__h17964 $end
$var reg 5 "| x__h17983 $end
$var reg 5 "} x__h18700 $end
$var reg 32 "~ x__h19819 $end
$var reg 10 #! x__h19852 $end
$var reg 10 #" x__h20089 $end
$var reg 10 ## x__h20156 $end
$var reg 10 #$ x__h20175 $end
$var reg 11 #% x__h21244 $end
$var reg 10 #& y__h15960 $end
$var reg 10 #' y__h17639 $end
$var reg 5 #( y__h18234 $end
$var reg 32 #) y__h18531 $end
$var reg 32 #[ aValue $end
$var reg 32 #\ bValue $end
$var reg 10 #] baseAddrVCurr $end
$var reg 10 #^ baseAddrVPrev $end
$var reg 5 #_ bestFinalState $end
$var reg 32 #` bestMin $end
$var reg 5 #a bestMinIdx $end
$var reg 5 #b bestPrevState $end
$var reg 6 #c currState $end
$var reg 5 #d currTraceState $end
$var reg 32 #e finalMaxProb $end
$var reg 32 #f fpAddResult1 $end
$var reg 10 #g inputIndex $end
$var reg 32 #h inputValue $end
$var reg 1 #i mIndex $end
$var reg 32 #j mValue $end
$var reg 10 #k maxInputSeqLength $end
$var reg 32 #l maxProb $end
$var reg 5 #m minIdx $end
$var reg 1 #n nIndex $end
$var reg 32 #o nValue $end
$var reg 11 #p outputOffset $end
$var reg 32 #q outputValue $end
$var reg 32 #r prevProb $end
$var reg 5 #s prevStateIndex $end
$scope module readReqFIFO_A1 $end
$var reg 1 ! CLK $end
$var reg 1 #t RST $end
$var reg 1 #u FULL_N $end
$var reg 1 #v EMPTY_N $end
$var reg 1 #w ENQ $end
$var reg 10 #x D_IN $end
$var reg 1 #y DEQ $end
$var reg 1 #z CLR $end
$var reg 10 #{ D_OUT $end
$var reg 10 #{ arr_0 $end
$upscope $end
$scope module readReqFIFO_B1 $end
$var reg 1 ! CLK $end
$var reg 1 #| RST $end
$var reg 1 #} FULL_N $end
$var reg 1 #~ EMPTY_N $end
$var reg 1 $! ENQ $end
$var reg 10 $" D_IN $end
$var reg 1 $# DEQ $end
$var reg 1 $$ CLR $end
$var reg 10 $% D_OUT $end
$var reg 10 $% arr_0 $end
$upscope $end
$scope module readReqFIFO_BTB1 $end
$var reg 1 ! CLK $end
$var reg 1 $& RST $end
$var reg 1 $' FULL_N $end
$var reg 1 $( EMPTY_N $end
$var reg 1 $) ENQ $end
$var reg 10 $* D_IN $end
$var reg 1 $+ DEQ $end
$var reg 1 $, CLR $end
$var reg 10 $- D_OUT $end
$var reg 10 $- arr_0 $end
$upscope $end
$scope module readReqFIFO_Input1 $end
$var reg 1 ! CLK $end
$var reg 1 $. RST $end
$var reg 1 $/ FULL_N $end
$var reg 1 $0 EMPTY_N $end
$var reg 1 $1 ENQ $end
$var reg 10 $2 D_IN $end
$var reg 1 $3 DEQ $end
$var reg 1 $4 CLR $end
$var reg 10 $5 D_OUT $end
$var reg 10 $5 arr_0 $end
$upscope $end
$scope module readReqFIFO_NM1 $end
$var reg 1 ! CLK $end
$var reg 1 $6 RST $end
$var reg 1 $7 FULL_N $end
$var reg 1 $8 EMPTY_N $end
$var reg 1 $9 ENQ $end
$var reg 1 $: D_IN $end
$var reg 1 $; DEQ $end
$var reg 1 $< CLR $end
$var reg 1 $= D_OUT $end
$var reg 1 $= arr_0 $end
$upscope $end
$scope module readReqFIFO_NM2 $end
$var reg 1 ! CLK $end
$var reg 1 $> RST $end
$var reg 1 $? FULL_N $end
$var reg 1 $@ EMPTY_N $end
$var reg 1 $A ENQ $end
$var reg 1 $B D_IN $end
$var reg 1 $C DEQ $end
$var reg 1 $D CLR $end
$var reg 1 $E D_OUT $end
$var reg 1 $E arr_0 $end
$upscope $end
$scope module readRespFIFO_A1 $end
$var reg 1 ! CLK $end
$var reg 1 $F RST $end
$var reg 1 $G FULL_N $end
$var reg 1 $H EMPTY_N $end
$var reg 1 $I ENQ $end
$var reg 32 $J D_IN $end
$var reg 1 $K DEQ $end
$var reg 1 $L CLR $end
$var reg 32 $M D_OUT $end
$var reg 32 $M arr_0 $end
$upscope $end
$scope module readRespFIFO_B1 $end
$var reg 1 ! CLK $end
$var reg 1 $N RST $end
$var reg 1 $O FULL_N $end
$var reg 1 $P EMPTY_N $end
$var reg 1 $Q ENQ $end
$var reg 32 $R D_IN $end
$var reg 1 $S DEQ $end
$var reg 1 $T CLR $end
$var reg 32 $U D_OUT $end
$var reg 32 $U arr_0 $end
$upscope $end
$scope module readRespFIFO_BTB1 $end
$var reg 1 ! CLK $end
$var reg 1 $V RST $end
$var reg 1 $W FULL_N $end
$var reg 1 $X EMPTY_N $end
$var reg 1 $Y ENQ $end
$var reg 32 $Z D_IN $end
$var reg 1 $[ DEQ $end
$var reg 1 $\ CLR $end
$var reg 32 $] D_OUT $end
$var reg 32 $] arr_0 $end
$upscope $end
$scope module readRespFIFO_Input1 $end
$var reg 1 ! CLK $end
$var reg 1 $^ RST $end
$var reg 1 $_ FULL_N $end
$var reg 1 $` EMPTY_N $end
$var reg 1 $a ENQ $end
$var reg 32 $b D_IN $end
$var reg 1 $c DEQ $end
$var reg 1 $d CLR $end
$var reg 32 $e D_OUT $end
$var reg 32 $e arr_0 $end
$upscope $end
$scope module readRespFIFO_NM1 $end
$var reg 1 ! CLK $end
$var reg 1 $f RST $end
$var reg 1 $g FULL_N $end
$var reg 1 $h EMPTY_N $end
$var reg 1 $i ENQ $end
$var reg 32 $j D_IN $end
$var reg 1 $k DEQ $end
$var reg 1 $l CLR $end
$var reg 32 $m D_OUT $end
$var reg 32 $m arr_0 $end
$upscope $end
$scope module readRespFIFO_NM2 $end
$var reg 1 ! CLK $end
$var reg 1 $n RST $end
$var reg 1 $o FULL_N $end
$var reg 1 $p EMPTY_N $end
$var reg 1 $q ENQ $end
$var reg 32 $r D_IN $end
$var reg 1 $s DEQ $end
$var reg 1 $t CLR $end
$var reg 32 $u D_OUT $end
$var reg 32 $u arr_0 $end
$upscope $end
$var reg 1 $v rg_done $end
$var reg 1 $w rg_fp_err $end
$var reg 1 $x rg_input_err $end
$var reg 1 $y rg_start $end
$var reg 5 $z snapshotIndex $end
$var reg 5 ${ stateCount $end
$var reg 5 $| stateIndex $end
$var reg 10 $} timeStep $end
$var reg 10 $~ traceBackTime $end
$var reg 1024 %! vCurrSnapshot $end
$scope module writeReqFIFO_BTB $end
$var reg 1 ! CLK $end
$var reg 1 %" RST $end
$var reg 1 %# FULL_N $end
$var reg 1 %$ EMPTY_N $end
$var reg 1 %% ENQ $end
$var reg 42 %& D_IN $end
$var reg 1 %' DEQ $end
$var reg 1 %( CLR $end
$var reg 42 %) D_OUT $end
$var reg 42 %) arr_0 $end
$upscope $end
$scope module writeReqFIFO_Output $end
$var reg 1 ! CLK $end
$var reg 1 %* RST $end
$var reg 1 %+ FULL_N $end
$var reg 1 %, EMPTY_N $end
$var reg 1 %- ENQ $end
$var reg 43 %. D_IN $end
$var reg 1 %/ DEQ $end
$var reg 1 %0 CLR $end
$var reg 43 %1 D_OUT $end
$var reg 43 %1 arr_0 $end
$upscope $end
$scope module fpAdder1 $end
$var reg 1 ! CLK $end
$var reg 1 %2 RST_N $end
$upscope $end
$upscope $end
$upscope $end
$upscope $end
$enddefinitions $end
1!
0"
b10101010101010101010101010101010 #
b1010101010101010101010101010101010101010101010101010101010101010101010101010101010101010101010101010101010101010101010101010101010101010101010101010101010101010101010101010101010101010101010101010101010101010101010101010101010101010101010101010101010101010101010101010101010101010101010101010101010101010101010101010101010101010101010101010101010101010101010101010101010101010101010101010101010101010101010101010101010101010101010101010101010101010101010101010101010101010101010101010101010101010101010101010101010101010101010101010101010101010101010101010101010101010101010101010101010101010101010101010101010101010101010101010101010101010101010101010101010101010101010101010101010101010101010101010101010101010101010101010101010101010101010101010101010101010101010101010101010101010101010101010101010101010101010101010101010101010101010101010101010101010101010101010101010101010101010101010101010101010101010101010101010101010101010101010101010101010101010101010101010101010101010101010101010101010101010101010101010101010 $
b10101010101010101010101010101010 %
b1010101010101010101010101010101010101010101010101010101010101010 &
b1010101010101010101010101010101010101010101010101010101010101010 '
b1010101010101010101010101010101010101010101010101010101010101010 (
b1010101010101010101010101010101010101010101010101010101010101010 )
b1010101010101010101010101010101010101010101010101010101010101010 *
b1010101010101010101010101010101010101010101010101010101010101010 +
b1010101010101010101010101010101010101010101010101010101010101010 ,
b1010101010101010101010101010101010101010101010101010101010101010 -
b1010101010101010101010101010101010101010101010101010101010101010 .
b1010101010101010101010101010101010101010101010101010101010101010 /
b1010101010101010101010101010101010101010101010101010101010101010 0
b1010101010101010101010101010101010101010101010101010101010101010 1
b1010101010101010101010101010101010101010101010101010101010101010101010101010101010101010101010101010101010101010101010101010101010101010101010101010101010101010101010101010101010101010101010101010101010101010101010101010101010101010101010101010101010101010101010101010101010101010101010101010101010101010101010101010101010101010101010101010101010101010101010101010101010101010101010101010101010101010101010101010101010101010101010101010101010101010101010101010101010101010101010101010101010101010101010101010101010101010101010101010101010101010101010101010101010101010101010101010101010101010101010101010101010101010101010101010101010101010101010101010101010101010101010101010101010101010101010101010101010101010101010101010101010101010101010101010101010101010101010101010101010101010101010101010101010101010101010101010101010101010101010101010101010101010101010101010101010101010101010101010101010101010101010101010101010101010101010101010101010101010101010101010101010101010101010101010101010101010101010101010101010101010 2
b1010101010101010101010101010101010101010101010101010101010101010101010101010101010101010101010101010101010101010101010101010101010101010101010101010101010101010101010101010101010101010101010101010101010101010101010101010101010101010101010101010101010101010101010101010101010101010101010101010101010101010101010101010101010101010101010101010101010101010101010101010101010101010101010101010101010101010101010101010101010101010101010101010101010101010101010101010101010101010101010101010101010101010101010101010101010101010101010101010101010101010101010101010101010101010101010101010101010101010101010101010101010101010101010101010101010101010101010101010101010101010101010101010101010101010101010101010101010101010101010101010101010101010101010101010101010101010101010101010101010101010101010101010101010101010101010101010101010101010101010101010101010101010101010101010101010101010101010101010101010101010101010101010101010101010101010101010101010101010101010101010101010101010101010101010101010101010101010101010101010101010 3
b1010101010 4
b0 B
b0 C
b0 D
b0 E
b0 F
0G
0H
0I
0J
0K
0L
0M
0N
0O
b0 P
b0 Q
b0 R
b0 S
b0 T
b0 U
b0 V
b0 W
b0 X
b0 Y
b0 Z
b0 [
0\
b0 ]
b0 ^
b0 _
b0 `
b0 a
b0 b
0c
b0 d
0e
b0 f
0g
0h
0i
b0 j
0k
0l
b0 m
b1010101010101010101010101010101010101010101010101010101010101010 n
b1010101010101010101010101010101010101010101010101010101010101010 o
b1010101010101010101010101010101010101010101010101010101010101010 p
b1010101010101010101010101010101010101010101010101010101010101010 q
b1010101010101010101010101010101010101010101010101010101010101010 r
b1010101010101010101010101010101010101010101010101010101010101010 s
b1010101010101010101010101010101010101010101010101010101010101010 t
b1010101010101010101010101010101010101010101010101010101010101010 u
b1010101010101010101010101010101010101010101010101010101010101010 v
b1010101010101010101010101010101010101010101010101010101010101010 w
b1010101010101010101010101010101010101010101010101010101010101010 x
b1010101010101010101010101010101010101010101010101010101010101010 y
b1010101010101010101010101010101010101010101010101010101010101010 z
b1010101010101010101010101010101010101010101010101010101010101010 {
b1010101010101010101010101010101010101010101010101010101010101010 |
b1010101010101010101010101010101010101010101010101010101010101010 }
b1010101010101010101010101010101010101010101010101010101010101010 ~
b1010101010101010101010101010101010101010101010101010101010101010 "!
b1010101010101010101010101010101010101010101010101010101010101010 ""
b1010101010101010101010101010101010101010101010101010101010101010 "#
b1010101010101010101010101010101010101010101010101010101010101010 "$
b1010101010101010101010101010101010101010101010101010101010101010 "%
b1010101010101010101010101010101010101010101010101010101010101010 "&
b1010101010101010101010101010101010101010101010101010101010101010 "'
b1010101010101010101010101010101010101010101010101010101010101010 "(
b1010101010101010101010101010101010101010101010101010101010101010 ")
b1010101010101010101010101010101010101010101010101010101010101010 "*
b1010101010101010101010101010101010101010101010101010101010101010 "+
b1010101010101010101010101010101010101010101010101010101010101010 ",
b1010101010101010101010101010101010101010101010101010101010101010 "-
b1010101010101010101010101010101010101010101010101010101010101010 ".
b1010101010101010101010101010101010101010101010101010101010101010 "/
b1010101010101010101010101010101010101010101010101010101010101010 "0
b1010101010101010101010101010101010101010101010101010101010101010 "1
b1010101010101010101010101010101010101010101010101010101010101010 "2
b1010101010101010101010101010101010101010101010101010101010101010 "3
b1010101010101010101010101010101010101010101010101010101010101010 "4
b1010101010101010101010101010101010101010101010101010101010101010 "5
b1010101010101010101010101010101010101010101010101010101010101010 "6
b1010101010101010101010101010101010101010101010101010101010101010 "7
b1010101010101010101010101010101010101010101010101010101010101010 "8
b1010101010101010101010101010101010101010101010101010101010101010 "9
b1010101010101010101010101010101010101010101010101010101010101010 ":
b1010101010101010101010101010101010101010101010101010101010101010 ";
b1010101010101010101010101010101010101010101010101010101010101010 "<
b1010101010101010101010101010101010101010101010101010101010101010 "=
b1010101010101010101010101010101010101010101010101010101010101010 ">
b1010101010101010101010101010101010101010101010101010101010101010 "?
b1010101010101010101010101010101010101010101010101010101010101010 "@
b1010101010101010101010101010101010101010101010101010101010101010 "A
b1010101010101010101010101010101010101010101010101010101010101010 "B
b1010101010101010101010101010101010101010101010101010101010101010 "C
b1010101010101010101010101010101010101010101010101010101010101010 "D
b1010101010101010101010101010101010101010101010101010101010101010 "E
b1010101010101010101010101010101010101010101010101010101010101010 "F
b1010101010101010101010101010101010101010101010101010101010101010 "G
b1010101010101010101010101010101010101010101010101010101010101010 "H
b1010101010101010101010101010101010101010101010101010101010101010 "I
b1010101010101010101010101010101010101010101010101010101010101010 "J
b1010101010101010101010101010101010101010101010101010101010101010 "K
b1010101010101010101010101010101010101010101010101010101010101010 "L
b1010101010101010101010101010101010101010101010101010101010101010 "M
b1010101010101010101010101010101010101010101010101010101010101010 "N
b1010101010101010101010101010101010101010101010101010101010101010 "O
b1010101010101010101010101010101010101010101010101010101010101010 "P
b1010101010101010101010101010101010101010101010101010101010101010 "Q
b1010101010101010101010101010101010101010101010101010101010101010 "R
b1010101010101010101010101010101010101010101010101010101010101010 "S
b1010101010101010101010101010101010101010101010101010101010101010 "T
b1010101010101010101010101010101010101010101010101010101010101010 "U
b1010101010101010101010101010101010101010101010101010101010101010 "V
b1010101010101010101010101010101010101010101010101010101010101010 "W
b1010101010101010101010101010101010101010101010101010101010101010 "X
b1010101010101010101010101010101010101010101010101010101010101010 "Y
b1010101010101010101010101010101010101010101010101010101010101010 "Z
b1010101010101010101010101010101010101010101010101010101010101010 "[
b1010101010101010101010101010101010101010101010101010101010101010 "\
b1010101010101010101010101010101010101010101010101010101010101010 "]
b1010101010101010101010101010101010101010101010101010101010101010 "^
b1010101010101010101010101010101010101010101010101010101010101010 "_
b1010101010101010101010101010101010101010101010101010101010101010 "`
b1010101010101010101010101010101010101010101010101010101010101010 "a
b1010101010101010101010101010101010101010101010101010101010101010 "b
b1010101010101010101010101010101010101010101010101010101010101010 "c
b1010101010101010101010101010101010101010101010101010101010101010 "d
b1010101010101010101010101010101010101010101010101010101010101010 "e
b1010101010101010101010101010101010101010101010101010101010101010 "f
b1010101010101010101010101010101010101010101010101010101010101010 "g
b1010101010101010101010101010101010101010101010101010101010101010 "h
b1010101010101010101010101010101010101010101010101010101010101010 "i
b1010101010101010101010101010101010101010101010101010101010101010 "j
b1010101010101010101010101010101010101010101010101010101010101010 "k
b1010101010101010101010101010101010101010101010101010101010101010 "l
b1010101010101010101010101010101010101010101010101010101010101010 "m
b1010101010101010101010101010101010101010101010101010101010101010 "n
b1010101010101010101010101010101010101010101010101010101010101010 "o
b1010101010101010101010101010101010101010101010101010101010101010 "p
b1010101010101010101010101010101010101010101010101010101010101010 "q
b1010101010101010101010101010101010101010101010101010101010101010 "r
b1010101010101010101010101010101010101010101010101010101010101010 "s
b1010101010101010101010101010101010101010101010101010101010101010 "t
b0 "u
b0 "v
b0 "w
b0 "x
b0 "y
b0 "z
b0 "{
b0 "|
b0 "}
b0 "~
b0 #!
b0 #"
b0 ##
b0 #$
b0 #%
b0 #&
b0 #'
b0 #(
b0 #)
b0 #[
b0 #\
b0 #]
b0 #^
b0 #_
b11111111111111111111111111111111 #`
b0 #a
b0 #b
b0 #c
b0 #d
b0 #e
b0 #f
b0 #g
b0 #h
1#i
b0 #j
b0 #k
b11111111111111111111111111111111 #l
b0 #m
0#n
b0 #o
b0 #p
b0 #q
b0 #r
b0 #s
0#t
1#u
0#v
0#w
b1010101010 #x
0#y
1#z
bx #{
0#|
1#}
0#~
0$!
b1010101010 $"
0$#
1$$
bx $%
0$&
1$'
0$(
0$)
b1010101010 $*
0$+
1$,
bx $-
0$.
1$/
0$0
0$1
b1010101010 $2
0$3
1$4
bx $5
0$6
1$7
0$8
0$9
0$:
0$;
1$<
x$=
0$>
1$?
0$@
0$A
0$B
0$C
1$D
x$E
0$F
1$G
0$H
0$I
b10101010101010101010101010101010 $J
0$K
1$L
bx $M
0$N
1$O
0$P
0$Q
b10101010101010101010101010101010 $R
0$S
1$T
bx $U
0$V
1$W
0$X
0$Y
b10101010101010101010101010101010 $Z
0$[
1$\
bx $]
0$^
1$_
0$`
0$a
b10101010101010101010101010101010 $b
0$c
1$d
bx $e
0$f
1$g
0$h
0$i
b10101010101010101010101010101010 $j
0$k
1$l
bx $m
0$n
1$o
0$p
0$q
b10101010101010101010101010101010 $r
0$s
1$t
bx $u
0$v
0$w
0$x
0$y
b0 $z
b0 ${
b0 $|
b0 $}
b0 $~
b1111111111111111111111111111111111111111111111111111111111111111111111111111111111111111111111111111111111111111111111111111111111111111111111111111111111111111111111111111111111111111111111111111111111111111111111111111111111111111111111111111111111111111111111111111111111111111111111111111111111111111111111111111111111111111111111111111111111111111111111111111111111111111111111111111111111111111111111111111111111111111111111111111111111111111111111111111111111111111111111111111111111111111111111111111111111111111111111111111111111111111111111111111111111111111111111111111111111111111111111111111111111111111111111111111111111111111111111111111111111111111111111111111111111111111111111111111111111111111111111111111111111111111111111111111111111111111111111111111111111111111111111111111111111111111111111111111111111111111111111111111111111111111111111111111111111111111111111111111111111111111111111111111111111111111111111111111111111111111111111111111111111111111111111111111111111111111111111111111111111111111 %!
0%"
1%#
0%$
0%%
b101010101010101010101010101010101010101010 %&
0%'
1%(
bx %)
0%*
1%+
0%,
0%-
b101010101010101010101010101010101010101010 %.
0%/
1%0
bx %1
0%2
b1010 &
0#z
0$$
0$,
0$4
0$<
0$D
0$L
0$T
0$\
0$d
0$l
0$t
0%(
0%0
#5
0!
1"
1O
1#t
1#|
1$&
1$.
1$6
1$>
1$F
1$N
1$V
1$^
1$f
1$n
1%"
1%*
1%2
#10
1l
b10100 "[
1!
1H
1$y
#15
0!
#20
b11110 "\
1!
b1 #c
#25
0!
#30
b101000 "]
b101000 "^
1$9
1$A
1$B
1!
b10 #c
#35
0!
#40
b110010 *
b110010 +
0$9
1$;
0$A
1$C
1$i
b1010010 $j
1$q
b11 $r
1!
b11 #c
0$7
1$8
0$=
0$?
1$@
1$E
#45
0!
#50
b111100 "_
b111100 "`
b111100 "a
b111100 "b
0$;
0$C
0$i
1$k
0$q
1$s
1!
1$7
0$8
x$=
1$?
0$@
x$E
0$g
1$h
b1010010 $m
0$o
1$p
b11 $u
#55
0!
#60
b1000110 "X
0$k
0$s
1!
b1101011100 #]
b1110101110 #^
b101110 #c
b11 #j
b1010 #k
b1010010 #o
1$g
0$h
bx $m
1$o
0$p
bx $u
#65
0!
#70
b1010000 "Z
1%-
b0 %.
1!
b101101 #c
#75
0!
#80
b0 $
b1011010 '
b1011010 /
b1 2
b1 3
b0 4
1k
0l
0%-
1%/
1!
b0 #c
1$v
0$y
0%+
1%,
b0 %1
#85
0!
#90
b10000000000000000000000000000011 #
b1100100 (
0%/
1!
b1 E
b1 F
1G
0H
1%+
0%,
bx %1
#95
0!
#100
b1 $
b10000000000000000000000000000011 %
1!
b10000000000000000000000000000011 C
b10 E
#105
0!
#110
1!
b1 B
#115
0!
#120
b10000010 )
1!
b11 E
